{
  "account.delete-warning": [
    {
      "type": 0,
      "value": "Gardez à l'esprit que vous ne pourrez pas récupérer les cartes mentales que vous avez créées. Toutes vos informations seront supprimées et elles ne pourront pas être restaurées."
    }
  ],
  "accountinfo.button": [
    {
      "type": 0,
      "value": "J'accepte"
    }
  ],
  "accountinfo.deleteaccount": [
    {
      "type": 0,
      "value": "Supprimer le compte"
    }
  ],
  "accountinfo.email": [
    {
      "type": 0,
      "value": "E-mail"
    }
  ],
  "accountinfo.firstname": [
    {
      "type": 0,
      "value": "Prénom"
    }
  ],
  "accountinfo.lastname": [
    {
      "type": 0,
      "value": "Nom de famille"
    }
  ],
  "accountinfo.title": [
    {
      "type": 0,
      "value": "Informations de compte"
    }
  ],
  "action.cancel-button": [
    {
      "type": 0,
      "value": "Annuler"
    }
  ],
  "action.close-button": [
    {
      "type": 0,
      "value": "Fermer"
    }
  ],
  "action.delete": [
    {
      "type": 0,
      "value": "Supprimer"
    }
  ],
  "action.delete-description": [
    {
      "type": 0,
      "value": "La carte mentale supprimée ne peut pas être récupérée. Voulez-vous continuer ?."
    }
  ],
  "action.delete-title": [
    {
      "type": 0,
      "value": "Supprimer"
    }
  ],
  "action.duplicate": [
    {
      "type": 0,
      "value": "Dupliquer"
    }
  ],
  "action.export": [
    {
      "type": 0,
      "value": "Exportation"
    }
  ],
  "action.history": [
    {
      "type": 0,
      "value": "Histoire"
    }
  ],
  "action.history-description": [
    {
      "type": 0,
      "value": "Liste des modifications introduites au cours des 90 derniers jours."
    }
  ],
  "action.history-title": [
    {
      "type": 0,
      "value": "Historique des versions"
    }
  ],
  "action.import": [
    {
      "type": 0,
      "value": "Importer"
    }
  ],
  "action.info": [
    {
      "type": 0,
      "value": "Info"
    }
  ],
  "action.label": [
    {
      "type": 0,
      "value": "Ajouter une étiquette"
    }
  ],
  "action.new": [
    {
      "type": 0,
      "value": "Nouvelle carte"
    }
  ],
  "action.open": [
    {
      "type": 0,
      "value": "Ouvert"
    }
  ],
  "action.print": [
    {
      "type": 0,
      "value": "Imprimer"
    }
  ],
  "action.publish": [
    {
      "type": 0,
      "value": "Publier"
    }
  ],
  "action.rename": [
    {
      "type": 0,
      "value": "Renommer"
    }
  ],
  "action.rename-description-placeholder": [
    {
      "type": 0,
      "value": "La description"
    }
  ],
  "action.rename-name-placeholder": [
    {
      "type": 0,
      "value": "Nom"
    }
  ],
  "action.share": [
    {
      "type": 0,
      "value": "Partager"
    }
  ],
  "changepwd.button": [
    {
      "type": 0,
      "value": "Changer"
    }
  ],
  "changepwd.confirm-password": [
    {
      "type": 0,
      "value": "Confirmez le mot de passe"
    }
  ],
  "changepwd.description": [
    {
      "type": 0,
      "value": "Veuillez fournir le nouveau mot de passe de votre compte."
    }
  ],
  "changepwd.password": [
    {
      "type": 0,
      "value": "Mot de passe"
    }
  ],
  "changepwd.password-match": [
    {
      "type": 0,
      "value": "Le mot de passe ne correspond pas. Veuillez réessayer."
    }
  ],
  "changepwd.title": [
    {
      "type": 0,
      "value": "Changer le mot de passe"
    }
  ],
  "common.wait": [
    {
      "type": 0,
      "value": "S'il vous plaît, attendez ..."
    }
  ],
  "create.button": [
    {
      "type": 0,
      "value": "Créer"
    }
  ],
  "create.description": [
    {
      "type": 0,
      "value": "Veuillez remplir le nouveau nom et la description de la carte."
    }
  ],
  "create.title": [
    {
      "type": 0,
      "value": "Créer une nouvelle carte mentale."
    }
  ],
  "deletem.title": [
    {
      "type": 0,
      "value": "Toutes les cartes sélectionnées seront supprimées"
    }
  ],
  "dialog.loading": [
    {
      "type": 0,
      "value": "Chargement ..."
    }
  ],
  "duplicate.title": [
    {
      "type": 0,
      "value": "Dupliquer"
    }
  ],
  "editor.try-welcome": [
  ],
  "editor.try-welcome-description": [
  ],
  "expired.description": [
    {
      "type": 0,
      "value": "Votre session actuelle a expiré. Veuillez vous connecter et réessayer."
    }
  ],
  "expired.title": [
    {
      "type": 0,
      "value": "Votre session a expiré"
    }
  ],
  "export.desc": [
    {
      "type": 0,
      "value": "Exportez cette carte dans le format que vous souhaitez et commencez à l'utiliser dans vos présentations ou à partager par e-mail"
    }
  ],
  "export.document": [
    {
      "type": 0,
      "value": "Outils Mindmap : exportez votre carte mentale dans des formats d'outils de carte mentale tiers"
    }
  ],
  "export.document-label": [
    {
      "type": 0,
      "value": "Document : exportez votre carte mentale dans un document autonome prêt à être partagé"
    }
  ],
  "export.image": [
    {
      "type": 0,
      "value": "Image : obtenez une représentation graphique de votre carte, y compris toutes les couleurs et toutes les formes."
    }
  ],
  "export.title": [
    {
      "type": 0,
      "value": "Exportation"
    }
  ],
  "export.warning": [
    {
      "type": 0,
      "value": "L'exportation vers une image (SVG,PNG,JPEG,PDF) n'est disponible que dans la barre d'outils de l'éditeur."
    }
  ],
  "footer.aboutus": [
    {
      "type": 0,
      "value": "À propos de nous"
    }
  ],
  "footer.contactus": [
    {
      "type": 0,
      "value": "Nous contacter"
    }
  ],
  "footer.donations": [
    {
      "type": 0,
      "value": "Des dons"
    }
  ],
  "footer.faq": [
    {
      "type": 0,
      "value": "FAQ."
    }
  ],
  "footer.faqandhelp": [
    {
      "type": 0,
      "value": "Aide et FAQ"
    }
  ],
  "footer.feedback": [
    {
      "type": 0,
      "value": "Retour"
    }
  ],
  "footer.opensource": [
    {
      "type": 0,
      "value": "Open source"
    }
  ],
  "footer.others": [
    {
      "type": 0,
      "value": "Autres"
    }
  ],
  "footer.support": [
    {
      "type": 0,
      "value": "Service"
    }
  ],
  "footer.team": [
    {
      "type": 0,
      "value": "Equipe"
    }
  ],
  "footer.termsandconditions": [
    {
      "type": 0,
      "value": "Termes et conditions"
    }
  ],
  "forgot.desc": [
    {
      "type": 0,
      "value": "Nous vous enverrons un e-mail pour réinitialiser votre mot de passe."
    }
  ],
  "forgot.email": [
    {
      "type": 0,
      "value": "E-mail"
    }
  ],
  "forgot.oauth.back": [
    {
      "type": 0,
      "value": "Retour connexion"
    }
  ],
  "forgot.oauth.message": [
    {
      "type": 0,
      "value": "Vous n'avez pas besoin de mot de passe, veuillez vous connecter en utilisant Google"
    }
  ],
  "forgot.page-title": [
    {
      "type": 0,
      "value": "Mot de passe oublié | WiseMapping"
    }
  ],
  "forgot.register": [
    {
      "type": 0,
      "value": "Envoyer le lien de récupération"
    }
  ],
  "forgot.success.desc": [
    {
      "type": 0,
      "value": "Nous vous avons envoyé un e-mail qui vous permettra de réinitialiser votre mot de passe. Vous devriez le recevoir dans les prochaines minutes."
    }
  ],
  "forgot.success.title": [
    {
      "type": 0,
      "value": "Votre mot de passe temporaire a été envoyé."
    }
  ],
  "forgot.title": [
    {
      "type": 0,
      "value": "réinitialisez votre mot de passe"
    }
  ],
  "forgotsuccess.page-title": [
    {
      "type": 0,
      "value": "Mot de passe récupéré | WiseMapping"
    }
  ],
  "header.donthaveaccount": [
    {
      "type": 0,
      "value": "Vous n'avez pas de compte ?"
    }
  ],
  "header.haveaccount": [
    {
      "type": 0,
      "value": "Vous avez déjà un compte?"
    }
  ],
  "help.support": [
    {
      "type": 0,
      "value": "Soutien"
    }
  ],
  "history.no-changes": [
    {
      "type": 0,
      "value": "Il n'y a pas de modifications disponibles"
    }
  ],
  "import.button": [
    {
      "type": 0,
      "value": "Créer"
    }
  ],
  "import.description": [
    {
      "type": 0,
      "value": "Sie können WiseMapping- oder Freemind-Karten in Ihre Kartenliste importieren. Selectionnez le fichier que vous souhaitez Importeur."
    }
  ],
  "import.error-file": [
    {
      "type": 0,
      "value": "Échec de l'importation : "
    },
    {
      "type": 1,
      "value": "error"
    }
  ],
  "import.title": [
    {
      "type": 0,
      "value": "Importer une carte mentale existante"
    }
  ],
  "info.basic-info": [
    {
      "type": 0,
      "value": "Informations de base"
    }
  ],
  "info.button": [
    {
      "type": 0,
      "value": "J'accepte"
    }
  ],
  "info.creation-time": [
    {
      "type": 0,
      "value": "Date de création"
    }
  ],
  "info.creator": [
    {
      "type": 0,
      "value": "Créateur"
    }
  ],
  "info.description": [
    {
      "type": 0,
      "value": "La description"
    }
  ],
  "info.description-msg": [
    {
      "type": 0,
      "value": "En publiant la carte, vous la rendez visible par tous sur Internet."
    }
  ],
  "info.modified-time": [
    {
      "type": 0,
      "value": "Date de la dernière modification"
    }
  ],
  "info.modified-tny": [
    {
      "type": 0,
      "value": "Dernière modification par"
    }
  ],
  "info.name": [
    {
      "type": 0,
      "value": "Nom"
    }
  ],
  "info.public-visibility": [
    {
      "type": 0,
      "value": "Visible publiquement"
    }
  ],
  "info.sharing": [
    {
      "type": 0,
      "value": "Partage"
    }
  ],
  "info.starred": [
    {
      "type": 0,
      "value": "Favoris"
    }
  ],
  "info.title": [
    {
      "type": 0,
      "value": "Info"
    }
  ],
  "label.add-button": [
    {
      "type": 0,
      "value": "Ajouter une étiquette"
    }
  ],
  "label.add-for": [
    {
      "type": 0,
      "value": "Modification des étiquettes pour les cartes :"
    }
  ],
  "label.add-placeholder": [
    {
      "type": 0,
      "value": "Titre de l'étiquette"
    }
  ],
  "label.change-color": [
    {
      "type": 0,
      "value": "Changer la couleur de l'étiquette"
    }
  ],
  "label.delete-description": [
    {
      "type": 0,
      "value": "sera supprimé, y compris ses associations à toutes les cartes existantes. Voulez-vous continuer?"
    }
  ],
  "label.delete-title": [
    {
      "type": 0,
      "value": "Confirmer la suppression de l'étiquette"
    }
  ],
  "label.description": [
    {
      "type": 0,
      "value": "Utilisez des étiquettes pour organiser vos cartes."
    }
  ],
  "label.title": [
    {
      "type": 0,
      "value": "Ajouter une étiquette"
    }
  ],
  "language.change": [
    {
      "type": 0,
      "value": "Changer de langue"
    }
  ],
  "language.help": [
    {
      "type": 0,
      "value": "Aide à la traduction"
    }
  ],
  "login.desc": [
    {
      "type": 0,
      "value": "Connectez-vous à votre compte"
    }
  ],
  "login.division": [
    {
      "type": 0,
      "value": "ou"
    }
  ],
  "login.email": [
    {
      "type": 0,
      "value": "E-mail"
    }
  ],
  "login.error": [
    {
      "type": 0,
      "value": "L'adresse e-mail ou le mot de passe que vous avez entré n'est pas valide."
    }
  ],
  "login.forgotpwd": [
    {
      "type": 0,
      "value": "Mot de passe oublié ?"
    }
  ],
  "login.google.button": [
    {
      "type": 0,
      "value": "Connectez-vous avec Google"
    }
  ],
  "login.hsqldbcofig": [
    {
      "type": 0,
      "value": "Bien que HSQLDB soit fourni avec WiseMapping par défaut lors de l'installation, nous ne recommandons pas cette base de données pour une utilisation en production. Veuillez envisager d'utiliser MySQL 5.7 à la place. Vous pouvez trouver plus d'informations sur la configuration de MySQL"
    }
  ],
  "login.page-title": [
    {
      "type": 0,
      "value": "Connexion | WiseMapping"
    }
  ],
  "login.password": [
    {
      "type": 0,
      "value": "Mot de passe"
    }
  ],
  "login.remberme": [
    {
      "type": 0,
      "value": "Souviens-toi de moi"
    }
  ],
  "login.signin": [
    {
      "type": 0,
      "value": "S'identifier"
    }
  ],
  "login.signup": [
    {
      "type": 0,
      "value": "S'inscrire"
    }
  ],
  "login.title": [
    {
      "type": 0,
      "value": "Bienvenue"
    }
  ],
  "login.userinactive": [
    {
      "type": 0,
      "value": "Désolé, votre compte n'a pas encore été activé. Vous recevrez un e-mail de notification lorsqu'il sera activé. Restez à l'écoute!."
    }
  ],
  "map.creator": [
    {
      "type": 0,
      "value": "Créateur"
    }
  ],
  "map.delete-selected": [
    {
      "type": 0,
      "value": "Supprimer sélectionnée"
    }
  ],
  "map.last-update": [
    {
      "type": 0,
      "value": "Dernière mise à jour"
    }
  ],
  "map.more-actions": [
    {
      "type": 0,
      "value": "Plus d'actions"
    }
  ],
  "map.name": [
    {
      "type": 0,
      "value": "Nom"
    }
  ],
  "map.tooltip-add": [
    {
      "type": 0,
      "value": "Ajouter une étiquette à la sélection"
    }
  ],
  "maps.choose-file": [
    {
      "type": 0,
      "value": "Choisissez un fichier"
    }
  ],
  "maps.create-tooltip": [
    {
      "type": 0,
      "value": "Créer une nouvelle carte mentale"
    }
  ],
  "maps.empty-result": [
    {
      "type": 0,
      "value": "Aucun enregistrement correspondant trouvé avec les critères de filtre actuels."
    }
  ],
  "maps.import-desc": [
    {
      "type": 0,
      "value": "Importer depuis d'autres outils"
    }
  ],
  "maps.modified": [
    {
      "type": 0,
      "value": "Modifié"
    }
  ],
  "maps.modified-by": [
    {
      "type": 0,
      "value": "Modifié par"
    }
  ],
  "maps.modified-by-desc": [
    {
      "type": 0,
      "value": "Modifié par "
    },
    {
      "type": 1,
      "value": "by"
    },
    {
      "type": 0,
      "value": " sur "
    },
    {
      "type": 1,
      "value": "on"
    }
  ],
  "maps.nav-all": [
    {
      "type": 0,
      "value": "Tout"
    }
  ],
  "maps.nav-onwned": [
    {
      "type": 0,
      "value": "Possédé"
    }
  ],
  "maps.nav-public": [
    {
      "type": 0,
      "value": "Publique"
    }
  ],
  "maps.nav-shared": [
    {
      "type": 0,
      "value": "Partagé avec moi"
    }
  ],
  "maps.nav-starred": [
    {
      "type": 0,
      "value": "Favoris"
    }
  ],
  "maps.page-title": [
    {
      "type": 0,
      "value": "Mes cartes | WiseMapping"
    }
  ],
  "maps.revert": [
    {
      "type": 0,
      "value": "Revenir"
    }
  ],
  "maps.search-action": [
    {
      "type": 0,
      "value": "Chercher ..."
    }
  ],
  "maps.tooltip-open": [
    {
      "type": 0,
      "value": "Ouvert pour l'édition"
    }
  ],
  "maps.tooltip-starred": [
    {
      "type": 0,
      "value": "Favoris"
    }
  ],
  "maps.view": [
    {
      "type": 0,
      "value": "Voir"
    }
  ],
  "menu.account": [
    {
      "type": 0,
      "value": "Compte"
    }
  ],
  "menu.change-password": [
    {
      "type": 0,
      "value": "Changer le mot de passe"
    }
  ],
  "menu.signout": [
    {
      "type": 0,
      "value": "Se déconnecter"
    }
  ],
  "publish.button": [
    {
      "type": 0,
      "value": "J'accepte"
    }
  ],
  "publish.checkbox": [
    {
      "type": 0,
      "value": "Activer le partage public"
    }
  ],
  "publish.description": [
    {
      "type": 0,
      "value": "En publiant la carte, vous la rendez visible par tous sur Internet."
    }
  ],
  "publish.embedded": [
    {
      "type": 0,
      "value": "Embarqué"
    }
  ],
  "publish.embedded-msg": [
    {
      "type": 0,
      "value": "Copiez cet extrait de code pour l'intégrer dans votre blog ou votre page :"
    }
  ],
  "publish.public-url": [
    {
      "type": 0,
      "value": "URL publique"
    }
  ],
  "publish.public-url-msg": [
    {
      "type": 0,
      "value": "Copiez et collez le lien ci-dessous pour partager votre carte avec vos collègues :"
    }
  ],
  "publish.title": [
    {
      "type": 0,
      "value": "Publier"
    }
  ],
  "registation.callback.error.message": [
    {
      "type": 0,
      "value": "Une erreur s'est produite lors de la validation de votre identité auprès de Google, vous pouvez réessayer depuis la page de connexion"
    }
  ],
  "registation.success-title": [
    {
      "type": 0,
      "value": "Inscription réussie | WiseMapping"
    }
  ],
  "registration.callback.back": [
    {
      "type": 0,
      "value": "Retour connexion"
    }
  ],
  "registration.callback.confirm.description": [
    {
      "type": 0,
      "value": "Un compte avec le même e-mail a déjà été enregistré. Voulez-vous lier votre compte Google à ce compte WiseMapping ?"
    }
  ],
  "registration.callback.confirm.title": [
    {
      "type": 0,
      "value": "Confirmer"
    }
  ],
  "registration.callback.sync": [
    {
      "type": 0,
      "value": "Compte de synchronisation"
    }
  ],
  "registration.callback.waiting.description": [
    {
      "type": 0,
      "value": "Veuillez patienter pendant que nous validons votre identité"
    }
  ],
  "registration.callback.waiting.title": [
    {
      "type": 0,
      "value": "Finition ..."
    }
  ],
  "registration.desc": [
    {
      "type": 0,
      "value": "L'inscription est gratuite et ne prends qu'un instant"
    }
  ],
  "registration.division": [
    {
      "type": 0,
      "value": "ou"
    }
  ],
  "registration.email": [
    {
      "type": 0,
      "value": "E-mail"
    }
  ],
  "registration.firstname": [
    {
      "type": 0,
      "value": "Prénom"
    }
  ],
  "registration.google.button": [
    {
      "type": 0,
      "value": "S'inscrire avec Google"
    }
  ],
  "registration.lastname": [
    {
      "type": 0,
      "value": "Nom de famille"
    }
  ],
  "registration.page-title": [
    {
      "type": 0,
      "value": "Inscription | WiseMapping"
    }
  ],
  "registration.password": [
    {
      "type": 0,
      "value": "Mot de passe"
    }
  ],
  "registration.register": [
    {
      "type": 0,
      "value": "S'inscrire"
    }
  ],
  "registration.success.desc": [
    {
      "type": 0,
      "value": "Cliquez sur le bouton \"Connexion\" ci-dessous et commencez à créer des cartes mentales."
    }
  ],
  "registration.termandconditions": [
    {
      "type": 0,
      "value": "Conditions d'utilisation : veuillez vérifier les informations de compte WiseMapping que vous avez saisies ci-dessus et consulter les conditions d'utilisation ici. En cliquant sur \"S'inscrire\" ci-dessous, vous acceptez les conditions d'utilisation ci-dessus et la politique de confidentialité"
    }
  ],
  "registration.title": [
    {
      "type": 0,
      "value": "Devenir membre"
    }
  ],
  "rename.description": [
    {
      "type": 0,
      "value": "Veuillez remplir le nouveau nom et la description de la carte."
    }
  ],
  "rename.title": [
    {
      "type": 0,
      "value": "Renommer"
    }
  ],
  "resetpassword.success.title": [
    {
      "type": 0,
      "value": "Votre compte a été créé avec succès"
    }
  ],
  "role.editor": [
    {
      "type": 0,
      "value": "Éditeur"
    }
  ],
  "role.owner": [
    {
      "type": 0,
      "value": "Onwer"
    }
  ],
  "role.viewer": [
    {
      "type": 0,
      "value": "Téléspectateur"
    }
  ],
  "share.add-button": [
    {
      "type": 0,
      "value": "Partager"
    }
  ],
  "share.add-message": [
    {
      "type": 0,
      "value": "Ajouter un message"
    }
  ],
  "share.can-edit": [
    {
      "type": 0,
      "value": "Peut éditer"
    }
  ],
  "share.can-view": [
    {
      "type": 0,
      "value": "Peut voir"
    }
  ],
  "share.delete": [
    {
      "type": 0,
      "value": "Supprimer un collaborateur"
    }
  ],
  "share.delete-description": [
    {
      "type": 0,
      "value": "Invitez des personnes à collaborer avec vous dans la création de votre midnmap. Ils seront prévenus par email."
    }
  ],
  "share.delete-title": [
    {
      "type": 0,
      "value": "Partager avec les gens"
    }
  ],
  "share.message": [
    {
      "type": 0,
      "value": "Message"
    }
  ]
}